<Qucs Schematic 0.0.19>
<Properties>
  <View=166,-314,2644,1495,0.683014,0,0>
  <Grid=10,10,1>
  <DataSet=rx-tx_rfswitch.dat>
  <DataDisplay=rx-tx_rfswitch.dpl>
  <OpenDisplay=1>
  <Script=rx-tx_rfswitch.m>
  <RunScript=0>
  <showFrame=0>
  <FrameText0=Title>
  <FrameText1=Drawn By:>
  <FrameText2=Date:>
  <FrameText3=Revision:>
</Properties>
<Symbol>
</Symbol>
<Components>
  <L LC1 1 410 880 -62 -26 1 1 "100nH" 1 "" 0>
  <Pac ANTP1 1 300 880 -94 -26 1 1 "1" 1 "50 Ohm" 1 "0 dBm" 0 "1 GHz" 0 "26.85" 0>
  <C CT1 1 560 830 -26 -63 0 2 "4.3 pF" 1 "" 0 "neutral" 0>
  <L LT1 1 640 830 -26 -48 1 0 "43 nH" 1 "" 0>
  <L LF1 1 790 830 -26 -48 0 2 "4.7 nH" 1 "" 0>
  <C CA1 0 840 880 25 -26 1 3 "5.1 pF" 1 "" 0 "neutral" 0>
  <C CA2 1 740 880 -83 -26 1 1 "5.6 pF" 1 "" 0 "neutral" 0>
  <GND * 1 300 930 0 0 0 0>
  <GND * 1 410 930 0 0 0 0>
  <GND * 1 490 930 0 0 0 0>
  <GND * 1 790 930 0 0 0 0>
  <C CC1 0 490 890 25 -26 0 1 "1 pF" 1 "" 0 "neutral" 0>
  <C CF1 1 790 760 -26 -63 0 2 "6.8 pF" 1 "" 0 "neutral" 0>
  <GND * 1 1100 780 0 0 0 0>
  <C CC2 0 440 420 17 -26 0 1 "1 pF" 1 "" 0 "neutral" 0>
  <C CC3 0 440 620 25 -26 0 1 "1 pF" 1 "" 0 "neutral" 0>
  <GND * 1 400 670 0 0 0 0>
  <GND * 1 400 370 0 0 0 2>
  <GND * 1 700 370 0 0 0 2>
  <L LC2 1 360 420 -80 -26 1 1 "100 nH" 1 "" 0>
  <L LC3 1 360 620 -62 -26 1 1 "100nH" 1 "" 0>
  <C CT3 1 550 580 -26 -63 0 2 "4.3 pF" 1 "" 0 "neutral" 0>
  <L LT2 1 630 460 -26 -48 1 0 "43 nH" 1 "" 0>
  <L LT3 1 640 580 -26 -48 1 0 "43 nH" 1 "" 0>
  <C CM1 1 700 420 17 -26 0 1 "11 pF" 1 "" 0 "neutral" 0>
  <C CM2 1 710 620 -83 -26 1 1 "5.6 pF" 1 "" 0 "neutral" 0>
  <L LB1 1 870 460 -26 -48 0 2 "27 nH" 1 "" 0>
  <L LB2 1 790 620 10 -26 0 1 "27 nH" 1 "" 0>
  <C CB1 1 870 580 -26 -63 0 2 "5.1 pF" 1 "" 0 "neutral" 0>
  <Pac ANTP2 1 300 520 -94 -26 1 1 "2" 1 "50 Ohm" 1 "0 dBm" 0 "1 GHz" 0 "26.85" 0>
  <GND * 1 750 670 0 0 0 0>
  <.SP SP1 1 250 -40 0 76 0 0 "log" 1 "100MHz" 1 "600MHz" 1 "100000" 1 "no" 0 "2" 0 "1" 0 "yes" 0 "yes" 0>
  <Eqn Eqn2 1 670 -20 -28 15 0 0 "dBS31=dB(S[3,1])" 1 "dBS32=dB(S[3,2])" 1 "dBS33=dB(S[3,3])" 1 "yes" 0>
  <SUBST FR1 1 480 -10 -30 24 0 0 "4.5" 1 "1.6mm" 1 "35 um" 1 "0.02" 1 "1.72e-8" 1 "0" 1>
  <Eqn SWR2 1 670 100 -28 15 0 0 "absS22=abs(S[2,2])" 1 "swr2=(1+absS22)/(1-absS22)" 1 "yes" 0>
  <Eqn SWR3 1 670 190 -28 15 0 0 "absS11=abs(S[1,1])" 1 "swr3=(1+absS11)/(1-absS11)" 1 "yes" 0>
  <C CT2 1 550 460 -26 -55 0 2 "4.3 pF" 1 "" 0 "neutral" 0>
  <C CSW1 1 980 520 -26 -55 0 2 "220 pF" 1 "" 0 "neutral" 0>
  <C CSW2 1 980 830 -26 -55 0 2 "220 pF" 1 "" 0 "neutral" 0>
  <Eqn SWR1 1 910 -20 -28 15 0 0 "absS33=abs(S[3,3])" 1 "swr1=(1+absS33)/(1-absS33)" 1 "yes" 0>
  <Pac ANTP3 1 1170 740 18 -26 0 1 "3" 1 "50 Ohm" 1 "0 dBm" 0 "1 GHz" 0 "26.85" 0>
  <GND * 1 1170 780 0 0 0 0>
  <SPfile X1 1 1100 670 -26 -89 1 2 "/home/azisi/Documents/pqws/pqws-main-hw/qucs/models/SKY13350_3V_Input_Output2.s3p" 0 "rectangular" 0 "linear" 0 "open" 0 "3" 0>
</Components>
<Wires>
  <410 910 410 930 "" 0 0 0 "">
  <300 830 300 850 "" 0 0 0 "">
  <590 830 610 830 "" 0 0 0 "">
  <740 760 760 760 "" 0 0 0 "">
  <670 830 740 830 "" 0 0 0 "">
  <740 830 760 830 "" 0 0 0 "">
  <740 760 740 830 "" 0 0 0 "">
  <820 760 840 760 "" 0 0 0 "">
  <820 830 840 830 "" 0 0 0 "">
  <840 760 840 830 "" 0 0 0 "">
  <740 830 740 850 "" 0 0 0 "">
  <840 830 840 850 "" 0 0 0 "">
  <740 910 740 930 "" 0 0 0 "">
  <740 930 790 930 "" 0 0 0 "">
  <840 910 840 930 "" 0 0 0 "">
  <300 910 300 930 "" 0 0 0 "">
  <300 830 410 830 "" 0 0 0 "">
  <410 830 410 850 "" 0 0 0 "">
  <410 830 490 830 "" 0 0 0 "">
  <790 930 840 930 "" 0 0 0 "">
  <490 830 530 830 "" 0 0 0 "">
  <490 830 490 860 "" 0 0 0 "">
  <490 920 490 930 "" 0 0 0 "">
  <1100 730 1100 780 "" 0 0 0 "">
  <660 460 700 460 "" 0 0 0 "">
  <700 450 700 460 "" 0 0 0 "">
  <440 450 440 460 "" 0 0 0 "">
  <360 460 440 460 "" 0 0 0 "">
  <360 450 360 460 "" 0 0 0 "">
  <360 370 360 390 "" 0 0 0 "">
  <360 370 400 370 "" 0 0 0 "">
  <440 370 440 390 "" 0 0 0 "">
  <700 370 700 390 "" 0 0 0 "">
  <580 580 610 580 "" 0 0 0 "">
  <670 580 710 580 "" 0 0 0 "">
  <710 580 710 590 "" 0 0 0 "">
  <360 580 360 590 "" 0 0 0 "">
  <360 580 440 580 "" 0 0 0 "">
  <440 580 520 580 "" 0 0 0 "">
  <440 580 440 590 "" 0 0 0 "">
  <360 650 360 670 "" 0 0 0 "">
  <360 670 400 670 "" 0 0 0 "">
  <440 650 440 670 "" 0 0 0 "">
  <400 670 440 670 "" 0 0 0 "">
  <400 370 440 370 "" 0 0 0 "">
  <710 580 790 580 "" 0 0 0 "">
  <710 670 750 670 "" 0 0 0 "">
  <710 650 710 670 "" 0 0 0 "">
  <790 650 790 670 "" 0 0 0 "">
  <790 580 790 590 "" 0 0 0 "">
  <700 460 840 460 "" 0 0 0 "">
  <790 580 840 580 "" 0 0 0 "">
  <900 580 930 580 "" 0 0 0 "">
  <900 460 930 460 "" 0 0 0 "">
  <930 460 930 520 "" 0 0 0 "">
  <300 580 360 580 "" 0 0 0 "">
  <300 550 300 580 "" 0 0 0 "">
  <300 460 360 460 "" 0 0 0 "">
  <300 460 300 490 "" 0 0 0 "">
  <750 670 790 670 "" 0 0 0 "">
  <440 460 520 460 "" 0 0 0 "">
  <580 460 600 460 "" 0 0 0 "">
  <930 520 930 580 "" 0 0 0 "">
  <930 520 950 520 "" 0 0 0 "">
  <840 830 950 830 "" 0 0 0 "">
  <1170 770 1170 780 "" 0 0 0 "">
  <1130 700 1150 700 "" 0 0 0 "">
  <1150 520 1150 700 "" 0 0 0 "">
  <1010 520 1150 520 "" 0 0 0 "">
  <1130 640 1170 640 "" 0 0 0 "">
  <1170 640 1170 710 "" 0 0 0 "">
  <1010 830 1040 830 "" 0 0 0 "">
  <1040 640 1040 830 "" 0 0 0 "">
  <1040 640 1070 640 "" 0 0 0 "">
  <300 580 300 580 "ANTN" 220 580 0 "">
  <300 460 300 460 "ANTP" 220 440 0 "">
</Wires>
<Diagrams>
  <Rect 1330 808 1173 338 3 #c0c0c0 1 00 1 0 0.2 1 1 -0.1 0.5 1.1 1 -0.1 0.5 1.1 315 0 225 "" "" "">
	<"dBS31" #0000ff 0 3 0 0 0>
	<"absS11" #ff0000 0 3 0 0 0>
  </Rect>
  <Rect 1330 1216 1185 326 3 #c0c0c0 1 00 1 1e+08 2e+07 6e+08 0 0 0.5 10 1 -1 0.5 1 315 0 225 "" "" "">
	<"swr2" #0000ff 0 3 0 0 0>
	<"swr3" #ff0000 0 3 0 0 0>
	<"swr1" #ff00ff 0 3 0 0 0>
  </Rect>
  <Rect 1340 414 1159 424 3 #c0c0c0 1 00 1 0 0.2 1 1 -0.1 0.5 1.1 1 -0.1 0.5 1.1 315 0 225 "" "" "">
	<"dBS32" #0000ff 0 3 0 0 0>
	<"dBS33" #ff0000 0 3 0 0 0>
  </Rect>
</Diagrams>
<Paintings>
</Paintings>
